<svg xmlns="http://www.w3.org/2000/svg" width="34.008" height="29.528" viewBox="0 0 34.008 29.528">
  <g id="Group_379" data-name="Group 379" transform="translate(-1167.788 -3692.28)">
    <g id="Group_371" data-name="Group 371" transform="translate(1168.788 3709.426)">
      <rect id="Rectangle_174" data-name="Rectangle 174" width="3.234" height="10.914" rx="1.617" fill="none" stroke="#5dff00" stroke-miterlimit="10" stroke-width="2"/>
      <path id="Path_11333" data-name="Path 11333" d="M637.388,748.6l5.358,1.877a1.512,1.512,0,0,0,1.881-.943h0a1.8,1.8,0,0,0-.745-2.4l-5.309-1.872h0c-3.037-1.224-6.849.394-8.45.764l-3.811.791" transform="translate(-623.078 -744.551)" fill="none" stroke="#5dff00" stroke-miterlimit="10" stroke-width="2"/>
      <path id="Path_11334" data-name="Path 11334" d="M626.312,758.386,641.594,761a3.2,3.2,0,0,0,1.958-.3l10.576-6.126a1.724,1.724,0,0,0,.636-2.531h0a1.724,1.724,0,0,0-2.172-.555l-7.085,4.1a.779.779,0,0,1-.331.074h-2.038" transform="translate(-623.078 -749.665)" fill="none" stroke="#5dff00" stroke-miterlimit="10" stroke-width="2"/>
    </g>
    <g id="Group_375" data-name="Group 375" transform="translate(1178.607 3693.28)">
      <path id="Path_11337" data-name="Path 11337" d="M682.388,682.828c0-.791-.322-1.38-1.592-1.951-1.224-.552-1.408-.635-1.408-1.04a.567.567,0,0,1,.6-.534c.534,0,.589.432.626.663h1.721a2.057,2.057,0,0,0-.451-1.344,2.311,2.311,0,0,0-1.452-.743v-.8a.442.442,0,1,0-.884,0v.819a2.093,2.093,0,0,0-1.888,1.961c0,1.279,1.187,1.758,1.666,1.951,1.049.442,1.335.552,1.335,1a.657.657,0,0,1-.663.653c-.221,0-.709-.138-.709-.93h-1.73v.221a2.066,2.066,0,0,0,1.989,2.135v1.029a.442.442,0,0,0,.884,0V684.9A1.979,1.979,0,0,0,682.388,682.828Z" transform="translate(-673.333 -674.858)" fill="#5dff00"/>
      <ellipse id="Ellipse_285" data-name="Ellipse 285" cx="6.639" cy="6.639" rx="6.639" ry="6.639" fill="none" stroke="#5dff00" stroke-miterlimit="10" stroke-width="2"/>
    </g>
  </g>
</svg>
