<svg xmlns="http://www.w3.org/2000/svg" xmlns:xlink="http://www.w3.org/1999/xlink" width="148" height="148" viewBox="0 0 148 148">
  <defs>
    <filter id="Path_11918" x="0" y="0" width="148" height="148" filterUnits="userSpaceOnUse">
      <feOffset dy="10" input="SourceAlpha"/>
      <feGaussianBlur stdDeviation="5" result="blur"/>
      <feFlood flood-opacity="0.161"/>
      <feComposite operator="in" in2="blur"/>
      <feComposite in="SourceGraphic"/>
    </filter>
  </defs>
  <g id="Group_1554" data-name="Group 1554" transform="translate(-3564 -1448)">
    <g transform="matrix(1, 0, 0, 1, 3564, 1448)" filter="url(#Path_11918)">
      <g id="Path_11918-2" data-name="Path 11918" transform="translate(15 5)" fill="#2998c2">
        <path d="M 59 116.5 C 51.23688507080078 116.5 43.70678329467773 114.9799194335938 36.61886596679688 111.9819869995117 C 33.21208190917969 110.5410308837891 29.92611694335938 108.7574462890625 26.85224914550781 106.6808013916016 C 23.80719947814941 104.6235961914063 20.94373321533203 102.2610015869141 18.34136581420898 99.65863037109375 C 15.73900032043457 97.05626678466797 13.37639999389648 94.19280242919922 11.31919956207275 91.14775085449219 C 9.242549896240234 88.07388305664063 7.458966732025146 84.78791809082031 6.018016815185547 81.38113403320313 C 3.020083427429199 74.293212890625 1.5 66.76311492919922 1.5 59 C 1.5 51.23688507080078 3.020083427429199 43.70678329467773 6.018016815185547 36.61886596679688 C 7.458966732025146 33.21208190917969 9.242549896240234 29.92611694335938 11.31919956207275 26.85224914550781 C 13.37639999389648 23.80719947814941 15.73900032043457 20.94373321533203 18.34136581420898 18.34136581420898 C 20.94373321533203 15.73900032043457 23.80719947814941 13.37639999389648 26.85224914550781 11.31919956207275 C 29.92611694335938 9.242549896240234 33.21208190917969 7.458966732025146 36.61886596679688 6.018016815185547 C 43.70678329467773 3.020083427429199 51.23688507080078 1.5 59 1.5 C 66.76311492919922 1.5 74.293212890625 3.020083427429199 81.38113403320313 6.018016815185547 C 84.78791809082031 7.458966732025146 88.07388305664063 9.242549896240234 91.14775085449219 11.31919956207275 C 94.19280242919922 13.37639999389648 97.05626678466797 15.73900032043457 99.65863037109375 18.34136581420898 C 102.2610015869141 20.94373321533203 104.6235961914063 23.80719947814941 106.6808013916016 26.85224914550781 C 108.7574462890625 29.92611694335938 110.5410308837891 33.21208190917969 111.9819869995117 36.61886596679688 C 114.9799194335938 43.70678329467773 116.5 51.23688507080078 116.5 59 C 116.5 66.76311492919922 114.9799194335938 74.293212890625 111.9819869995117 81.38113403320313 C 110.5410308837891 84.78791809082031 108.7574462890625 88.07388305664063 106.6808013916016 91.14775085449219 C 104.6235961914063 94.19280242919922 102.2610015869141 97.05626678466797 99.65863037109375 99.65863037109375 C 97.05626678466797 102.2610015869141 94.19280242919922 104.6235961914063 91.14775085449219 106.6808013916016 C 88.07388305664063 108.7574462890625 84.78791809082031 110.5410308837891 81.38113403320313 111.9819869995117 C 74.293212890625 114.9799194335938 66.76311492919922 116.5 59 116.5 Z" stroke="none"/>
        <path d="M 59 3 C 51.43872833251953 3 44.10521697998047 4.480216979980469 37.20320129394531 7.399528503417969 C 33.88559722900391 8.802742004394531 30.68556213378906 10.53971099853516 27.69196319580078 12.56214904785156 C 24.72602081298828 14.56588745117188 21.93687438964844 16.86716461181641 19.40201568603516 19.40201568603516 C 16.86716461181641 21.93687438964844 14.56588745117188 24.72602081298828 12.56214904785156 27.69196319580078 C 10.53971099853516 30.68556213378906 8.802742004394531 33.88559722900391 7.399528503417969 37.20320129394531 C 4.480216979980469 44.10521697998047 3 51.43872833251953 3 59 C 3 66.56127166748047 4.480216979980469 73.89478302001953 7.399528503417969 80.79679870605469 C 8.802742004394531 84.11439514160156 10.53971099853516 87.31443786621094 12.56214904785156 90.30803680419922 C 14.56588745117188 93.27397918701172 16.86716461181641 96.06312561035156 19.40201568603516 98.59798431396484 C 21.93687438964844 101.1328353881836 24.72602081298828 103.4341125488281 27.69196319580078 105.4378509521484 C 30.68556213378906 107.4602890014648 33.88559722900391 109.1972503662109 37.20320129394531 110.600471496582 C 44.10521697998047 113.5197830200195 51.43872833251953 115 59 115 C 66.56127166748047 115 73.89478302001953 113.5197830200195 80.79679870605469 110.600471496582 C 84.11439514160156 109.1972503662109 87.31443786621094 107.4602890014648 90.30803680419922 105.4378509521484 C 93.27397918701172 103.4341125488281 96.06312561035156 101.1328353881836 98.59798431396484 98.59798431396484 C 101.1328353881836 96.06312561035156 103.4341125488281 93.27397918701172 105.4378509521484 90.30803680419922 C 107.4602890014648 87.31443786621094 109.1972503662109 84.11439514160156 110.600471496582 80.79679870605469 C 113.5197830200195 73.89478302001953 115 66.56127166748047 115 59 C 115 51.43872833251953 113.5197830200195 44.10521697998047 110.600471496582 37.20320129394531 C 109.1972503662109 33.88559722900391 107.4602890014648 30.68556213378906 105.4378509521484 27.69196319580078 C 103.4341125488281 24.72602081298828 101.1328353881836 21.93687438964844 98.59798431396484 19.40201568603516 C 96.06312561035156 16.86716461181641 93.27397918701172 14.56588745117188 90.30803680419922 12.56214904785156 C 87.31443786621094 10.53971099853516 84.11439514160156 8.802742004394531 80.79679870605469 7.399528503417969 C 73.89478302001953 4.480216979980469 66.56127166748047 3 59 3 M 59 0 C 91.58480072021484 0 118 26.41519927978516 118 59 C 118 91.58480072021484 91.58480072021484 118 59 118 C 26.41519927978516 118 0 91.58480072021484 0 59 C 0 26.41519927978516 26.41519927978516 0 59 0 Z" stroke="none" fill="#fff"/>
      </g>
    </g>
    <g id="Group_1484" data-name="Group 1484" transform="translate(2480.805 1004.678)">
      <path id="Path_11827" data-name="Path 11827" d="M3460.152,861l-5.4,2.936,13.152,23.016,7.046-4.227" transform="translate(-2275.206 -378.678)" fill="none" stroke="#fff" stroke-width="3"/>
      <path id="Path_11828" data-name="Path 11828" d="M3429.219,907.065l-12.565,8.1a65.7,65.7,0,0,0-6.928,0c-1.761.235-16.44,6.106-16.91,6.106s-3.875.587-4.7-1.644-.939-5.167,1.057-6.224,16.674-8.22,16.674-8.22-.234-2.936-2.818-2.7-6.693,5.754-6.693,5.754" transform="translate(-2239.576 -400.67)" fill="none" stroke="#fff" stroke-width="3"/>
      <path id="Path_11829" data-name="Path 11829" d="M3418.1,875.417s-4.814,1.292-8.571.587-9.864-1.761-10.687-1.761-4.579-.352-7.163,4.227-6.928,12.8-6.928,12.8" transform="translate(-2238.085 -385.698)" fill="none" stroke="#fff" stroke-width="3"/>
      <path id="Path_11830" data-name="Path 11830" d="M3367.745,913.974l-9.218-6.224L3341.5,935.463" transform="translate(-2215.151 -403.469)" fill="none" stroke="#fff" stroke-width="3"/>
      <path id="Path_11831" data-name="Path 11831" d="M3417.125,937.25l3.523,2.583-7.4,10.921" transform="translate(-2253.199 -419.113)" fill="none" stroke="#fff" stroke-width="3"/>
      <path id="Path_11832" data-name="Path 11832" d="M3333,973.106h62.779" transform="translate(-2217.805 -440.136)" fill="none" stroke="#fff" stroke-width="3"/>
    </g>
  </g>
</svg>
